<?xml version='1.0' encoding='UTF-8'?>
<!-- Created with Inkscape (http://www.inkscape.org/) and export_objects.py -->
<svg xmlns:cc="http://creativecommons.org/ns#" xmlns:dc="http://purl.org/dc/elements/1.1/" xmlns:inkscape="http://www.inkscape.org/namespaces/inkscape" xmlns:rdf="http://www.w3.org/1999/02/22-rdf-syntax-ns#" xmlns:sodipodi="http://sodipodi.sourceforge.net/DTD/sodipodi-0.dtd" xmlns:xlink="http://www.w3.org/1999/xlink" xmlns="http://www.w3.org/2000/svg" version="1.1" id="svg1" width="16" height="16" viewBox="0 0 16 16">
<sodipodi:namedview 
    objecttolerance="10" 
    gridtolerance="10" 
    guidetolerance="10" 
    id="namedview" 
    showgrid="true" 
    inkscape:zoom="27.166187"
    inkscape:cx="7.4837792"
    inkscape:cy="8.9906751"
    inkscape:window-x="0" 
    inkscape:window-y="27"> 
    <inkscape:grid type="xygrid" id="grid"/>
  </sodipodi:namedview>
  <metadata
     id="metadata1906">
    <rdf:RDF>
      <cc:Work
         rdf:about="">
        <dc:format>image/svg+xml</dc:format>
        <dc:type
           rdf:resource="http://purl.org/dc/dcmitype/StillImage" />
        <cc:license
           rdf:resource="http://creativecommons.org/publicdomain/zero/1.0/" />
        <dc:title>LiveEffect Icons proposal</dc:title>
        <dc:date>13 Jan 2019</dc:date>
        <dc:creator>
          <cc:Agent>
            <dc:title>Ramón Miranda</dc:title>
          </cc:Agent>
        </dc:creator>
        <dc:rights>
          <cc:Agent>
            <dc:title>see the license tab</dc:title>
          </cc:Agent>
        </dc:rights>
        <dc:subject>
          <rdf:Bag>
            <rdf:li>icon ui</rdf:li>
          </rdf:Bag>
        </dc:subject>
        <dc:description>This is a contribution with Inkscape Project from
Ramon Miranda www.ramonmiranda.com (design and SVG file)
Jabiertxo (SVG stuff to integrate them in UI)</dc:description>
        <dc:publisher>
          <cc:Agent>
            <dc:title></dc:title>
          </cc:Agent>
        </dc:publisher>
        <dc:identifier></dc:identifier>
        <dc:source />
        <dc:relation />
        <dc:language>-</dc:language>
        <dc:coverage />
        <dc:contributor>
          <cc:Agent>
            <dc:title>Ramon Miranda
Jabier Arraiza</dc:title>
          </cc:Agent>
        </dc:contributor>
      </cc:Work>
      <cc:License
         rdf:about="http://creativecommons.org/publicdomain/zero/1.0/">
        <cc:permits
           rdf:resource="http://creativecommons.org/ns#Reproduction" />
        <cc:permits
           rdf:resource="http://creativecommons.org/ns#Distribution" />
        <cc:permits
           rdf:resource="http://creativecommons.org/ns#DerivativeWorks" />
      </cc:License>
    </rdf:RDF>
  </metadata>
  <g inkscape:groupmode="layer"
     id="layercompo"
     inkscape:label="powerclip">
        <path 
            id="rect22048" 
            d="M 0,0 H 16 V 16 H 0 Z" 
            style="opacity:0;fill:none" />
        <path inkscape:connector-curvature="0" d="M 8.1774524,2.4748084 7.8227986,2.977291 8.0548601,3.1411256 8.1608639,2.991532 8.2565481,3.1492833 8.4989513,3.0000105 Z m -0.584026,0.8285227 -0.2293711,0.32604 0.2301468,0.1619093 0.231287,-0.3241148 z M 8.7037076,3.3405175 8.4613044,3.4897902 8.6699043,3.8283855 8.9123023,3.6810337 Z M 7.1346895,3.9534898 6.9033973,4.2795254 7.13546,4.4433599 7.3648311,4.1173198 Z M 9.1189762,4.0215459 8.8765781,4.1688976 9.0851729,4.5094137 9.327571,4.3620621 Z M 6.6740303,4.6036448 6.4446593,4.9296845 6.6767219,5.093519 6.906093,4.7674798 Z M 9.5323289,4.7006485 9.2937677,4.8499301 9.4985205,5.1904368 9.7409237,5.0411651 Z M 6.2152882,5.2557248 6.0167624,5.5357327 5.6803854,5.61755 5.7450568,5.892412 6.1852195,5.7897091 6.4454348,5.4176364 Z M 9.9475976,5.3816761 9.7071193,5.529033 9.9425049,5.9137963 10.372503,6.0492842 10.455744,5.7786117 10.127485,5.6760277 Z m -4.6554793,0.3271702 -0.3863451,0.091303 0.064662,0.2767838 0.3882713,-0.09322 z m 5.5456377,0.1878417 -0.08516,0.2706684 0.38201,0.1180829 0.08516,-0.2706683 z M 4.5175009,5.893368 4.1311557,5.984672 4.1958267,6.259534 4.5840939,6.168236 Z m -0.7746123,0.1826012 -0.3863515,0.093224 0.064671,0.274862 0.3863462,-0.091303 z m 7.8569694,0.056878 -0.08516,0.2706684 0.380091,0.1180735 0.08516,-0.2706684 z M 2.9663449,6.2624044 2.3704884,6.4031625 2.7381775,6.8938955 2.9652578,6.725376 2.8541807,6.5791145 3.0329417,6.5353517 Z m 9.3936961,0.1065926 -0.08516,0.2706683 0.38009,0.1180735 0.08517,-0.2706683 z m 0.762102,0.2361577 -0.08516,0.2706683 0.174688,0.054203 -0.11943,0.1380359 0.214717,0.1849297 0.398753,-0.4658797 z M 3.2027176,7.0448328 2.9756373,7.2133511 3.2150182,7.5328089 3.4401825,7.3623644 Z M 12.832186,7.3709782 12.572138,7.671973 12.786861,7.8568987 13.046915,7.5539829 Z M 3.6814844,7.681825 3.4544001,7.8522656 3.6918598,8.1717181 3.9189441,8.0012775 Z M 12.314004,7.9748928 12.053956,8.2758866 12.2706,8.4608173 12.528732,8.1578974 Z M 4.1564051,8.3207302 3.9293248,8.4892497 4.1687056,8.8087063 4.3957858,8.6401879 Z M 11.795824,8.5788064 11.53577,8.8817222 11.750493,9.0666478 12.010548,8.763732 Z M 4.6332456,8.9596405 4.4061613,9.1300799 4.6129936,9.403355 4.585238,9.7471554 l 0.2823388,0.023713 0.037566,-0.449438 z m 6.6424754,0.2230764 -0.294727,0.343176 0.0066,0.4533839 0.284326,-0.00318 -0.0069,-0.3458066 0.225376,-0.2607335 z m -6.7240266,0.9639421 -0.031639,0.395666 0.2823399,0.02371 0.033572,-0.39758 z m 6.7250696,0.227113 -0.284321,0.0031 0.0049,0.399589 0.282407,-0.0051 z m -6.788406,0.566132 -0.031639,0.395666 0.2804198,0.02368 0.033572,-0.397581 z m 6.798065,0.229207 -0.284329,0.0051 0.0067,0.397673 0.282403,-0.0031 z m -3.4186388,0.462628 -0.4287348,0.144992 0.091581,0.269162 0.3268381,-0.110653 0.3185866,0.131373 0.1081953,-0.261008 z m -3.4427639,0.101408 -0.033572,0.397582 0.2842589,0.02374 0.02975,-0.397588 z m 2.6372019,0.171407 -0.3749049,0.12783 0.089658,0.269158 0.376826,-0.127826 z m 1.5905064,0.05368 -0.1101168,0.262926 0.368483,0.152628 0.1101179,-0.261003 z m 2.6452684,0.0081 -0.284324,0.0031 0.0067,0.399596 0.282401,-0.0031 z m -4.9894276,0.193832 -0.3768312,0.129747 0.091581,0.269161 0.3768311,-0.129746 z m 3.0792,0.105211 -0.1081942,0.26293 0.3665671,0.150704 0.1101091,-0.259084 z m -3.8347782,0.152361 -0.3749049,0.12783 0.091581,0.269162 0.374905,-0.127829 z m -1.1932334,0.110542 -0.049424,0.610781 0.5806192,-0.196504 -0.091581,-0.269162 -0.1711077,0.05723 0.013871,-0.180547 z m 5.7649742,0.04427 -0.110118,0.261006 0.368479,0.154548 0.108195,-0.26293 z m 1.182919,0.191048 -0.282403,0.0031 0.0035,0.184429 -0.170806,-0.07146 -0.108195,0.261009 0.566157,0.235698 -0.0033,-0.215166 0.002,8e-6 z M 0.78757645,0.66318656 0.75309238,15.343789 15.477878,15.378377 15.512363,0.69777501 Z M 8.1940882,1.9350318 10.327833,5.4382803 14.24585,6.6519839 11.574042,9.7635753 11.629722,13.865153 7.8431937,12.286759 3.9614923,13.605089 4.2938323,9.5178693 1.8387586,6.2328657 5.8290894,5.2855549 Z" style="opacity:1"/>
    </g>
</svg>
